{
    "routes": [
        {
            "src": "/auth/login",
            "dest": "/"
        },
        {
            "src": "/auth/register",
            "dest": "/"
        },
        {
            "src": "/admin/dashboard",
            "dest": "/"
        },
        {
            "src": "/admin/news",
            "dest": "/"
        },
        {
            "src": "/admin/news/create",
            "dest": "/"
        },
        {
            "src": "/admin/news/(.*)/edit",
            "dest": "/"
        }
    ]
}
